<svg width="50" height="50" viewBox="0 0 50 50" fill="none" xmlns="http://www.w3.org/2000/svg">
<rect width="50" height="50" fill="#010101"/>
<path d="M42.1875 3.125H7.8125C5.22461 3.125 3.125 5.22461 3.125 7.8125V42.1875C3.125 44.7754 5.22461 46.875 7.8125 46.875H42.1875C44.7754 46.875 46.875 44.7754 46.875 42.1875V7.8125C46.875 5.22461 44.7754 3.125 42.1875 3.125ZM19.1406 34.7656C13.7402 34.7656 9.375 30.4004 9.375 25C9.375 19.5996 13.7402 15.2344 19.1406 15.2344C21.7773 15.2344 23.9746 16.1914 25.6836 17.793L23.0371 20.3418C22.3145 19.6484 21.0547 18.8379 19.1504 18.8379C15.8203 18.8379 13.1055 21.5918 13.1055 25.0098C13.1055 28.418 15.8203 31.1816 19.1504 31.1816C23.0176 31.1816 24.4629 28.3984 24.6973 26.9727H19.1406V23.6133H28.3594C28.457 24.1016 28.5156 24.5996 28.5156 25.2344C28.5156 30.8105 24.7754 34.7656 19.1406 34.7656ZM40.625 26.7773H37.793V29.6094H34.9414V26.7773H32.1094V23.9258H34.9414V21.0938H37.793V23.9258H40.625V26.7773Z" fill="#FCDB00"/>
</svg>
