<svg width="50" height="50" viewBox="0 0 50 50" fill="none" xmlns="http://www.w3.org/2000/svg">
<rect width="50" height="50" fill="#010101"/>
<path d="M46.875 7.8125V42.1875C46.875 44.7754 44.7754 46.875 42.1875 46.875H18.2031C19.1602 45.2734 20.3906 42.9688 20.8789 41.084C21.1719 39.9609 22.373 35.3809 22.373 35.3809C23.1543 36.875 25.4395 38.1348 27.8711 38.1348C35.1074 38.1348 40.3125 31.4844 40.3125 23.2227C40.3125 15.3027 33.8477 9.375 25.5273 9.375C15.1758 9.375 9.6875 16.3184 9.6875 23.8867C9.6875 27.4023 11.5625 31.7773 14.5508 33.1738C15.0098 33.3887 15.2441 33.291 15.3516 32.8516C15.4297 32.5195 15.8398 30.8887 16.0156 30.1367C16.0742 29.8926 16.0449 29.6875 15.8496 29.4531C14.8633 28.252 14.0625 26.0449 14.0625 23.9844C14.0625 18.6914 18.0664 13.5742 24.8926 13.5742C30.7812 13.5742 34.9121 17.5879 34.9121 23.3301C34.9121 29.8145 31.6406 34.3066 27.373 34.3066C25.0195 34.3066 23.2617 32.3633 23.8184 29.9707C24.4922 27.1191 25.8008 24.043 25.8008 21.9824C25.8008 16.8066 18.4277 17.5195 18.4277 24.4238C18.4277 26.543 19.1406 27.9883 19.1406 27.9883C16.0742 40.957 15.6152 41.123 16.25 46.7969L16.4648 46.875H7.8125C5.22461 46.875 3.125 44.7754 3.125 42.1875V7.8125C3.125 5.22461 5.22461 3.125 7.8125 3.125H42.1875C44.7754 3.125 46.875 5.22461 46.875 7.8125Z" fill="#FCDB00"/>
</svg>
