<svg width="50" height="50" viewBox="0 0 50 50" fill="none" xmlns="http://www.w3.org/2000/svg">
<rect width="50" height="50" fill="#010101"/>
<path d="M42.0625 3H7.6875C5.09961 3 3 5.09961 3 7.6875V42.0625C3 44.6504 5.09961 46.75 7.6875 46.75H42.0625C44.6504 46.75 46.75 44.6504 46.75 42.0625V7.6875C46.75 5.09961 44.6504 3 42.0625 3ZM37.2871 18.5078C37.3066 18.7812 37.3066 19.0645 37.3066 19.3379C37.3066 27.8047 30.8613 37.5605 19.084 37.5605C15.4512 37.5605 12.082 36.5059 9.25 34.6895C9.76758 34.748 10.2656 34.7676 10.793 34.7676C13.791 34.7676 16.5449 33.752 18.7422 32.0332C15.9297 31.9746 13.5664 30.1289 12.7559 27.5898C13.7422 27.7363 14.6309 27.7363 15.6465 27.4727C12.7168 26.877 10.5195 24.2988 10.5195 21.1836V21.1055C11.3691 21.584 12.3652 21.877 13.4102 21.916C12.5317 21.3317 11.8115 20.5389 11.3139 19.6085C10.8164 18.6782 10.5569 17.6391 10.5586 16.584C10.5586 15.3926 10.8711 14.2988 11.4277 13.3516C14.582 17.2383 19.3184 19.7773 24.6309 20.0508C23.7227 15.7051 26.9746 12.1797 30.8809 12.1797C32.7266 12.1797 34.3867 12.9512 35.5586 14.2012C37.0039 13.9277 38.3906 13.3906 39.6211 12.6582C39.1426 14.1426 38.1367 15.3926 36.8086 16.1836C38.0977 16.0469 39.3477 15.6855 40.5 15.1875C39.6309 16.4668 38.5371 17.5996 37.2871 18.5078Z" fill="#FCDB00"/>
</svg>
